{
  "bitbucket" : {
    "team" : "cle-cohort1-1",
    "username" : "te-bituser",
    "apppassword" : "#)*USLJF",
    "useSsh" : false
  },
  "curriculumFolder" : "C:/Users/TechElevator/workspace-curriculum/te-curriculum-v1/",
  "workspaceFolder" : "C:/Users/TechElevator/workspace/",
  "studentFolder" : "C:/Users/TechElevator/student-workspace/",
  "defaultLanguage" : "java",
  "defaultClassName" : "blue",
  "project" : "Java"
}
